{
  "users": [
    {
      "uuid": 1,
      "name": "NO NAAAAME",
      "age": 400,
      "id": 1
    },
    {
      "uuid": 2,
      "name": "WAPPAAAAAA",
      "age": 4,
      "id": 10
    },
    {
      "name": "bob",
      "age": 30,
      "id": 11
    },
    {
      "name": "bob",
      "age": 30,
      "id": 12
    },
    {
      "name": "sfdgsfghmfhjm",
      "age": 30,
      "id": 13
    },
    {
      "name": "dfgdfghfdn",
      "age": 30,
      "id": 14
    }
  ]
}